^C:\USERS\OSMAR\GOOGLE DRIVE\INPAHU1\VISUAL BASIC\PROYECTOS\LIQUIDACIONNOMINA\LIQUIDACIONNOMINA\FORM1.RESX|C:\USERS\OSMAR\GOOGLE DRIVE\INPAHU1\VISUAL BASIC\PROYECTOS\LIQUIDACIONNOMINA\LIQUIDACIONNOMINA\MY PROJECT\RESOURCES.RESX
C:\USERS\OSMAR\GOOGLE DRIVE\INPAHU1\VISUAL BASIC\PROYECTOS\LIQUIDACIONNOMINA\LIQUIDACIONNOMINA\OBJ\X86\DEBUG\LIQUIDACIONNOMINA.FORM1.RESOURCES
C:\USERS\OSMAR\GOOGLE DRIVE\INPAHU1\VISUAL BASIC\PROYECTOS\LIQUIDACIONNOMINA\LIQUIDACIONNOMINA\OBJ\X86\DEBUG\LIQUIDACIONNOMINA.RESOURCES.RESOURCES
